11장.사례연구소스.utf8
…
 #xlim(c(45,60))
  orderBy(~-income.mean, data=age.income)[1,]

## # A tibble: 1 x 3
##     age income.mean income.sd
##   <dbl>       <dbl>     <dbl>
## 1    53        319.      243.

  age.income[order(age.income$income.mean, decreasing = T),]

## # A tibble: 69 x 3
##      age income.mean income.sd
##    <dbl>       <dbl>     <dbl>
##  1    53        319.      243.
##  2    49        315.      274.
##  3    44        315.      180.
##  4    50        314.      294.
##  5    40        306.      158.
##  6    47        302.      191.
##  7    42        301.      194.
##  8    46        300.      196.
##  9    56        295.      243.
## 10    55        294.      288.
## # ... with 59 more rows
…
#[ 6 ] 1번 문제의 결과인 data.frame변수를 이용하여 나이에 따른 월급 변화를 성별을 분리하여 시각화 하시오. 
#(1)나이와 성별로 group_by하여 월급평균, 월급표준편차, 월급중앙값,
# 최소값과 최대값, 빈도을 산출한다
gender_age_income <- welfare %>% 
  filter(!is.na(welfare$income)) %>% 
  group_by(age, gender) %>% 
  summarise(income.mean = mean(income, na.rm=T),
            income.sd = sd(income),income.median = median(income),
            income.min = min(income),income.max = max(income),n=n())

## `summarise()` has grouped output by 'age'. You can override using the `.groups` argument.

gender_age_income

## # A tibble: 134 x 8
## # Groups:   age [69]
##      age gender income.mean income.sd income.median income.min income.max     n
##    <dbl> <fct>        <dbl>     <dbl>         <dbl>      <dbl>      <dbl> <int>
##  1    20 female        147.      8.27         147.       142.        153.     2
##  2    20 male           69      NA             69         69          69      1
##  3    21 female        107.     64.0          110         22         258.    19
##  4    21 male          102.     23.4           97.5       63.6       140      8
##  5    22 female        140.     82.6          150         15         358.    17
##  6    22 male          118.     65.1          103         36.7       280     14
##  7    23 female        139.     76.1          120         40         350     19
##  8    23 male          153.     61.3          139.        96         240      4
##  9    24 female        126.     63.5          136         20         302.    40
## 10    24 male          158.     63.2          155         60         280     13
## # ... with 124 more rows
…
#(3) 지역별 연령대 비율을 분석한 도표 및 그래프를 시각화한다
region_agegrade<-welfare %>% 
  group_by(region, agegrade) %>% 
  summarise(n = n()) %>% 
  mutate(tot_group = sum(n)) %>% 
  mutate(pct = round(n/tot_group*100, 2))

## `summarise()` has grouped output by 'region'. You can override using the `.groups` argument.

region_agegrade

## # A tibble: 21 x 5
## # Groups:   region [7]
##    region                agegrade     n tot_group   pct
##    <chr>                 <chr>    <int>     <int> <dbl>
##  1 강원/충북             middle     431      1257  34.3
##  2 강원/충북             old        532      1257  42.3
##  3 강원/충북             young      294      1257  23.4
##  4 광주/전남/전북/제주도 middle     963      2922  33.0
##  5 광주/전남/전북/제주도 old       1201      2922  41.1
##  6 광주/전남/전북/제주도 young      758      2922  25.9
##  7 대구/경북             middle     651      2036  32.0
##  8 대구/경북             old        904      2036  44.4
##  9 대구/경북             young      481      2036  23.6
## 10 대전/충남             middle     557      1467  38.0
## # ... with 11 more rows
…
